<?xml version="1.0" encoding="UTF-8" standalone="no"?>
<!-- Created with Inkscape (http://www.inkscape.org/) -->

<svg
   xmlns:dc="http://purl.org/dc/elements/1.1/"
   xmlns:cc="http://creativecommons.org/ns#"
   xmlns:rdf="http://www.w3.org/1999/02/22-rdf-syntax-ns#"
   xmlns:svg="http://www.w3.org/2000/svg"
   xmlns="http://www.w3.org/2000/svg"
   xmlns:sodipodi="http://sodipodi.sourceforge.net/DTD/sodipodi-0.dtd"
   xmlns:inkscape="http://www.inkscape.org/namespaces/inkscape"
   width="475.71912"
   height="476.23389"
   id="svg2"
   version="1.1"
   inkscape:version="0.48.4 r9939"
   sodipodi:docname="framelator.svg">
  <defs
     id="defs4" />
  <sodipodi:namedview
     id="base"
     pagecolor="#ffffff"
     bordercolor="#666666"
     borderopacity="1.0"
     inkscape:pageopacity="0.0"
     inkscape:pageshadow="2"
     inkscape:zoom="0.1767767"
     inkscape:cx="2792.428"
     inkscape:cy="-1457.5405"
     inkscape:document-units="px"
     inkscape:current-layer="layer1"
     showgrid="false"
     fit-margin-top="0"
     fit-margin-left="0"
     fit-margin-right="0"
     fit-margin-bottom="0"
     inkscape:window-width="1912"
     inkscape:window-height="1029"
     inkscape:window-x="0"
     inkscape:window-y="27"
     inkscape:window-maximized="1" />
  <metadata
     id="metadata7">
    <rdf:RDF>
      <cc:Work
         rdf:about="">
        <dc:format>image/svg+xml</dc:format>
        <dc:type
           rdf:resource="http://purl.org/dc/dcmitype/StillImage" />
        <dc:title></dc:title>
      </cc:Work>
    </rdf:RDF>
  </metadata>
  <g
     inkscape:label="Layer 1"
     inkscape:groupmode="layer"
     id="layer1"
     transform="translate(1525.1423,570.34804)">
    <g
       id="g5821"
       transform="translate(-237.58788,-39.59798)"
       inkscape:export-filename="/run/media/sxe/ixsystems/sxe/sites/slackermedia-cooking/images/kcalc.png"
       inkscape:export-xdpi="9.0799999"
       inkscape:export-ydpi="9.0799999">
      <path
         transform="matrix(1.0571429,0,0,1.0571429,-1695.3095,-1113.1656)"
         d="m 835.71429,775.93359 c 0,124.26407 -100.73593,225.00001 -225,225.00001 -124.26406,0 -225,-100.73594 -225,-225.00001 0,-124.26406 100.73594,-225 225,-225 124.26407,0 225,100.73594 225,225 z"
         sodipodi:ry="225"
         sodipodi:rx="225"
         sodipodi:cy="775.93359"
         sodipodi:cx="610.71429"
         id="path4856"
         style="fill:#8ae234;fill-opacity:1;stroke:none"
         sodipodi:type="arc" />
      <g
         transform="translate(-2032.1515,-1751.4611)"
         id="g5733">
        <g
           style="fill:#657c43;fill-opacity:1"
           transform="matrix(5.906734,0.62080447,-0.62080447,5.906734,718.37928,1133.2585)"
           id="g5222">
          <rect
             inkscape:tile-cy="17.722816"
             inkscape:tile-cx="41.367621"
             x="49.262001"
             inkscape:tile-h="3.4307041"
             y="9.9398003"
             height="3.4307001"
             inkscape:tile-w="1.4852411"
             width="1.4852"
             style="fill:#657c43;fill-opacity:1;fill-rule:evenodd"
             id="rect5224" />
          <rect
             inkscape:tile-cx="41.367621"
             x="49.255001"
             y="86.528999"
             inkscape:tile-cy="17.722816"
             inkscape:tile-h="3.4307041"
             width="1.4852"
             height="3.4307001"
             inkscape:tile-w="1.4852411"
             style="fill:#657c43;fill-opacity:1;fill-rule:evenodd"
             id="rect5226" />
        </g>
        <g
           style="fill:#657c43;fill-opacity:1"
           transform="matrix(5.8093685,1.234821,-1.234821,5.8093685,753.91306,1107.4152)"
           id="g5228">
          <rect
             inkscape:tile-cx="41.367621"
             x="49.262001"
             y="9.9398003"
             inkscape:tile-cy="17.722816"
             inkscape:tile-h="3.4307041"
             width="1.4852"
             height="3.4307001"
             inkscape:tile-w="1.4852411"
             style="fill:#657c43;fill-opacity:1;fill-rule:evenodd"
             id="rect5230" />
          <rect
             inkscape:tile-cy="17.722816"
             inkscape:tile-cx="41.367621"
             x="49.255001"
             inkscape:tile-h="3.4307041"
             y="86.528999"
             height="3.4307001"
             inkscape:tile-w="1.4852411"
             width="1.4852"
             style="fill:#657c43;fill-opacity:1;fill-rule:evenodd"
             id="rect5232" />
        </g>
        <g
           style="fill:#657c43;fill-opacity:1"
           transform="matrix(5.6484238,1.8352924,-1.8352924,5.6484238,791.95008,1085.4266)"
           id="g5234">
          <rect
             inkscape:tile-cy="17.722816"
             inkscape:tile-cx="41.367621"
             x="49.262001"
             inkscape:tile-h="3.4307041"
             y="9.9398003"
             height="3.4307001"
             inkscape:tile-w="1.4852411"
             width="1.4852"
             style="fill:#657c43;fill-opacity:1;fill-rule:evenodd"
             id="rect5236" />
          <rect
             inkscape:tile-cx="41.367621"
             x="49.255001"
             y="86.528999"
             inkscape:tile-cy="17.722816"
             inkscape:tile-h="3.4307041"
             width="1.4852"
             height="3.4307001"
             inkscape:tile-w="1.4852411"
             style="fill:#657c43;fill-opacity:1;fill-rule:evenodd"
             id="rect5238" />
        </g>
        <g
           style="fill:#657c43;fill-opacity:1"
           transform="matrix(5.4257426,2.4156456,-2.4156456,5.4257426,832.08184,1067.5353)"
           id="g5240">
          <rect
             inkscape:tile-cx="41.367621"
             x="49.262001"
             y="9.9398003"
             inkscape:tile-cy="17.722816"
             inkscape:tile-h="3.4307041"
             width="1.4852"
             height="3.4307001"
             inkscape:tile-w="1.4852411"
             style="fill:#657c43;fill-opacity:1;fill-rule:evenodd"
             id="rect5242" />
          <rect
             inkscape:tile-cy="17.722816"
             inkscape:tile-cx="41.367621"
             x="49.255001"
             inkscape:tile-h="3.4307041"
             y="86.528999"
             height="3.4307001"
             inkscape:tile-w="1.4852411"
             width="1.4852"
             style="fill:#657c43;fill-opacity:1;fill-rule:evenodd"
             id="rect5244" />
        </g>
        <g
           style="fill:#657c43;fill-opacity:1"
           transform="matrix(4.8049995,3.4910269,-3.4910269,4.8049995,916.82355,1044.7819)"
           id="g5246">
          <rect
             inkscape:tile-cx="41.367621"
             x="49.262001"
             y="9.9398003"
             inkscape:tile-cy="17.722816"
             inkscape:tile-h="3.4307041"
             width="1.4852"
             height="3.4307001"
             inkscape:tile-w="1.4852411"
             style="fill:#657c43;fill-opacity:1;fill-rule:evenodd"
             id="rect5248" />
          <rect
             inkscape:tile-cy="17.722816"
             inkscape:tile-cx="41.367621"
             x="49.255001"
             inkscape:tile-h="3.4307041"
             y="86.528999"
             height="3.4307001"
             inkscape:tile-w="1.4852411"
             width="1.4852"
             style="fill:#657c43;fill-opacity:1;fill-rule:evenodd"
             id="rect5250" />
        </g>
        <g
           style="fill:#657c43;fill-opacity:1"
           transform="matrix(4.4136949,3.9741683,-3.9741683,4.4136949,960.5305,1040.1655)"
           id="g5252">
          <rect
             inkscape:tile-cy="17.722816"
             inkscape:tile-cx="41.367621"
             x="49.262001"
             inkscape:tile-h="3.4307041"
             y="9.9398003"
             height="3.4307001"
             inkscape:tile-w="1.4852411"
             width="1.4852"
             style="fill:#657c43;fill-opacity:1;fill-rule:evenodd"
             id="rect5254" />
          <rect
             inkscape:tile-cx="41.367621"
             x="49.255001"
             y="86.528999"
             inkscape:tile-cy="17.722816"
             inkscape:tile-h="3.4307041"
             width="1.4852"
             height="3.4307001"
             inkscape:tile-w="1.4852411"
             style="fill:#657c43;fill-opacity:1;fill-rule:evenodd"
             id="rect5256" />
        </g>
        <g
           style="fill:#657c43;fill-opacity:1"
           transform="matrix(3.9741683,4.4136949,-4.4136949,3.9741683,1004.4524,1040.144)"
           id="g5258">
          <rect
             inkscape:tile-cx="41.367621"
             x="49.262001"
             y="9.9398003"
             inkscape:tile-cy="17.722816"
             inkscape:tile-h="3.4307041"
             width="1.4852"
             height="3.4307001"
             inkscape:tile-w="1.4852411"
             style="fill:#657c43;fill-opacity:1;fill-rule:evenodd"
             id="rect5260" />
          <rect
             inkscape:tile-cy="17.722816"
             inkscape:tile-cx="41.367621"
             x="49.255001"
             inkscape:tile-h="3.4307041"
             y="86.528999"
             height="3.4307001"
             inkscape:tile-w="1.4852411"
             width="1.4852"
             style="fill:#657c43;fill-opacity:1;fill-rule:evenodd"
             id="rect5262" />
        </g>
        <g
           style="fill:#657c43;fill-opacity:1"
           transform="matrix(3.4910269,4.8049995,-4.8049995,3.4910269,1048.1594,1044.7143)"
           id="g5264">
          <rect
             inkscape:tile-cy="17.722816"
             inkscape:tile-cx="41.367621"
             x="49.262001"
             inkscape:tile-h="3.4307041"
             y="9.9398003"
             height="3.4307001"
             inkscape:tile-w="1.4852411"
             width="1.4852"
             style="fill:#657c43;fill-opacity:1;fill-rule:evenodd"
             id="rect5266" />
          <rect
             inkscape:tile-cx="41.367621"
             x="49.255001"
             y="86.528999"
             inkscape:tile-cy="17.722816"
             inkscape:tile-h="3.4307041"
             width="1.4852"
             height="3.4307001"
             inkscape:tile-w="1.4852411"
             style="fill:#657c43;fill-opacity:1;fill-rule:evenodd"
             id="rect5268" />
        </g>
        <g
           style="fill:#657c43;fill-opacity:1"
           transform="matrix(2.4156764,5.4257426,-5.4257426,2.4156764,1132.9318,1067.3817)"
           id="g5270">
          <rect
             inkscape:tile-cy="17.722816"
             inkscape:tile-cx="41.367621"
             x="49.262001"
             inkscape:tile-h="3.4307041"
             y="9.9398003"
             height="3.4307001"
             inkscape:tile-w="1.4852411"
             width="1.4852"
             style="fill:#657c43;fill-opacity:1;fill-rule:evenodd"
             id="rect5272" />
          <rect
             inkscape:tile-cx="41.367621"
             x="49.255001"
             y="86.528999"
             inkscape:tile-cy="17.722816"
             inkscape:tile-h="3.4307041"
             width="1.4852"
             height="3.4307001"
             inkscape:tile-w="1.4852411"
             style="fill:#657c43;fill-opacity:1;fill-rule:evenodd"
             id="rect5274" />
        </g>
        <g
           style="fill:#657c43;fill-opacity:1"
           transform="matrix(1.8353231,5.6484238,-5.6484238,1.8353231,1173.0759,1085.2331)"
           id="g5276">
          <rect
             inkscape:tile-cx="41.367621"
             x="49.262001"
             y="9.9398003"
             inkscape:tile-cy="17.722816"
             inkscape:tile-h="3.4307041"
             width="1.4852"
             height="3.4307001"
             inkscape:tile-w="1.4852411"
             style="fill:#657c43;fill-opacity:1;fill-rule:evenodd"
             id="rect5278" />
          <rect
             inkscape:tile-cy="17.722816"
             inkscape:tile-cx="41.367621"
             x="49.255001"
             inkscape:tile-h="3.4307041"
             y="86.528999"
             height="3.4307001"
             inkscape:tile-w="1.4852411"
             width="1.4852"
             style="fill:#657c43;fill-opacity:1;fill-rule:evenodd"
             id="rect5280" />
        </g>
        <g
           style="fill:#657c43;fill-opacity:1"
           transform="matrix(1.234821,5.8093685,-5.8093685,1.234821,1211.1313,1107.1818)"
           id="g5282">
          <rect
             inkscape:tile-cy="17.722816"
             inkscape:tile-cx="41.367621"
             x="49.262001"
             inkscape:tile-h="3.4307041"
             y="9.9398003"
             height="3.4307001"
             inkscape:tile-w="1.4852411"
             width="1.4852"
             style="fill:#657c43;fill-opacity:1;fill-rule:evenodd"
             id="rect5284" />
          <rect
             inkscape:tile-cx="41.367621"
             x="49.255001"
             y="86.528999"
             inkscape:tile-cy="17.722816"
             inkscape:tile-h="3.4307041"
             width="1.4852"
             height="3.4307001"
             inkscape:tile-w="1.4852411"
             style="fill:#657c43;fill-opacity:1;fill-rule:evenodd"
             id="rect5286" />
        </g>
        <g
           style="fill:#657c43;fill-opacity:1"
           transform="matrix(0.62083518,5.906734,-5.906734,0.62083518,1246.6989,1132.9882)"
           id="g5288">
          <rect
             inkscape:tile-cx="41.367621"
             x="49.262001"
             y="9.9398003"
             inkscape:tile-cy="17.722816"
             inkscape:tile-h="3.4307041"
             width="1.4852"
             height="3.4307001"
             inkscape:tile-w="1.4852411"
             style="fill:#657c43;fill-opacity:1;fill-rule:evenodd"
             id="rect5290" />
          <rect
             inkscape:tile-cy="17.722816"
             inkscape:tile-cx="41.367621"
             x="49.255001"
             inkscape:tile-h="3.4307041"
             y="86.528999"
             height="3.4307001"
             inkscape:tile-w="1.4852411"
             width="1.4852"
             style="fill:#657c43;fill-opacity:1;fill-rule:evenodd"
             id="rect5292" />
        </g>
        <g
           style="fill:#657c43;fill-opacity:1"
           transform="matrix(-0.62080447,5.906734,-5.906734,-0.62080447,1308.7732,1195.0042)"
           id="g5294">
          <rect
             inkscape:tile-cx="41.367621"
             x="49.262001"
             y="9.9398003"
             inkscape:tile-cy="17.722816"
             inkscape:tile-h="3.4307041"
             width="1.4852"
             height="3.4307001"
             inkscape:tile-w="1.4852411"
             style="fill:#657c43;fill-opacity:1;fill-rule:evenodd"
             id="rect5296" />
          <rect
             inkscape:tile-cy="17.722816"
             inkscape:tile-cx="41.367621"
             x="49.255001"
             inkscape:tile-h="3.4307041"
             y="86.528999"
             height="3.4307001"
             inkscape:tile-w="1.4852411"
             width="1.4852"
             style="fill:#657c43;fill-opacity:1;fill-rule:evenodd"
             id="rect5298" />
        </g>
        <g
           style="fill:#657c43;fill-opacity:1"
           transform="matrix(-1.2347903,5.8093685,-5.8093685,-1.2347903,1334.6349,1230.5379)"
           id="g5300">
          <rect
             inkscape:tile-cy="17.722816"
             inkscape:tile-cx="41.367621"
             x="49.262001"
             inkscape:tile-h="3.4307041"
             y="9.9398003"
             height="3.4307001"
             inkscape:tile-w="1.4852411"
             width="1.4852"
             style="fill:#657c43;fill-opacity:1;fill-rule:evenodd"
             id="rect5302" />
          <rect
             inkscape:tile-cx="41.367621"
             x="49.255001"
             y="86.528999"
             inkscape:tile-cy="17.722816"
             inkscape:tile-h="3.4307041"
             width="1.4852"
             height="3.4307001"
             inkscape:tile-w="1.4852411"
             style="fill:#657c43;fill-opacity:1;fill-rule:evenodd"
             id="rect5304" />
        </g>
        <g
           style="fill:#657c43;fill-opacity:1"
           transform="matrix(-1.8352616,5.6484238,-5.6484238,-1.8352616,1356.6266,1268.575)"
           id="g5306">
          <rect
             inkscape:tile-cx="41.367621"
             x="49.262001"
             y="9.9398003"
             inkscape:tile-cy="17.722816"
             inkscape:tile-h="3.4307041"
             width="1.4852"
             height="3.4307001"
             inkscape:tile-w="1.4852411"
             style="fill:#657c43;fill-opacity:1;fill-rule:evenodd"
             id="rect5308" />
          <rect
             inkscape:tile-cy="17.722816"
             inkscape:tile-cx="41.367621"
             x="49.255001"
             inkscape:tile-h="3.4307041"
             y="86.528999"
             height="3.4307001"
             inkscape:tile-w="1.4852411"
             width="1.4852"
             style="fill:#657c43;fill-opacity:1;fill-rule:evenodd"
             id="rect5310" />
        </g>
        <g
           style="fill:#657c43;fill-opacity:1"
           transform="matrix(-2.4156456,5.4257426,-5.4257426,-2.4156456,1374.5025,1308.7159)"
           id="g5312">
          <rect
             inkscape:tile-cy="17.722816"
             inkscape:tile-cx="41.367621"
             x="49.262001"
             inkscape:tile-h="3.4307041"
             y="9.9398003"
             height="3.4307001"
             inkscape:tile-w="1.4852411"
             width="1.4852"
             style="fill:#657c43;fill-opacity:1;fill-rule:evenodd"
             id="rect5314" />
          <rect
             inkscape:tile-cx="41.367621"
             x="49.255001"
             y="86.528999"
             inkscape:tile-cy="17.722816"
             inkscape:tile-h="3.4307041"
             width="1.4852"
             height="3.4307001"
             inkscape:tile-w="1.4852411"
             style="fill:#657c43;fill-opacity:1;fill-rule:evenodd"
             id="rect5316" />
        </g>
        <g
           style="fill:#657c43;fill-opacity:1"
           transform="matrix(-3.4910269,4.8049995,-4.8049995,-3.4910269,1397.2621,1393.4576)"
           id="g5318">
          <rect
             inkscape:tile-cy="17.722816"
             inkscape:tile-cx="41.367621"
             x="49.262001"
             inkscape:tile-h="3.4307041"
             y="9.9398003"
             height="3.4307001"
             inkscape:tile-w="1.4852411"
             width="1.4852"
             style="fill:#657c43;fill-opacity:1;fill-rule:evenodd"
             id="rect5320" />
          <rect
             inkscape:tile-cx="41.367621"
             x="49.255001"
             y="86.528999"
             inkscape:tile-cy="17.722816"
             inkscape:tile-h="3.4307041"
             width="1.4852"
             height="3.4307001"
             inkscape:tile-w="1.4852411"
             style="fill:#657c43;fill-opacity:1;fill-rule:evenodd"
             id="rect5322" />
        </g>
        <g
           style="fill:#657c43;fill-opacity:1"
           transform="matrix(-3.9741683,4.4136949,-4.4136949,-3.9741683,1401.8693,1437.1339)"
           id="g5324">
          <rect
             inkscape:tile-cx="41.367621"
             x="49.262001"
             y="9.9398003"
             inkscape:tile-cy="17.722816"
             inkscape:tile-h="3.4307041"
             width="1.4852"
             height="3.4307001"
             inkscape:tile-w="1.4852411"
             style="fill:#657c43;fill-opacity:1;fill-rule:evenodd"
             id="rect5326" />
          <rect
             inkscape:tile-cy="17.722816"
             inkscape:tile-cx="41.367621"
             x="49.255001"
             inkscape:tile-h="3.4307041"
             y="86.528999"
             height="3.4307001"
             inkscape:tile-w="1.4852411"
             width="1.4852"
             style="fill:#657c43;fill-opacity:1;fill-rule:evenodd"
             id="rect5328" />
        </g>
        <g
           style="fill:#657c43;fill-opacity:1"
           transform="matrix(-4.4136949,3.9741683,-3.9741683,-4.4136949,1401.9,1481.0865)"
           id="g5330">
          <rect
             inkscape:tile-cy="17.722816"
             inkscape:tile-cx="41.367621"
             x="49.262001"
             inkscape:tile-h="3.4307041"
             y="9.9398003"
             height="3.4307001"
             inkscape:tile-w="1.4852411"
             width="1.4852"
             style="fill:#657c43;fill-opacity:1;fill-rule:evenodd"
             id="rect5332" />
          <rect
             inkscape:tile-cx="41.367621"
             x="49.255001"
             y="86.528999"
             inkscape:tile-cy="17.722816"
             inkscape:tile-h="3.4307041"
             width="1.4852"
             height="3.4307001"
             inkscape:tile-w="1.4852411"
             style="fill:#657c43;fill-opacity:1;fill-rule:evenodd"
             id="rect5334" />
        </g>
        <g
           style="fill:#657c43;fill-opacity:1"
           transform="matrix(-4.8046924,3.4910269,-3.4910269,-4.8046924,1397.3235,1524.7935)"
           id="g5336">
          <rect
             inkscape:tile-cx="41.367621"
             x="49.262001"
             y="9.9398003"
             inkscape:tile-cy="17.722816"
             inkscape:tile-h="3.4307041"
             width="1.4852"
             height="3.4307001"
             inkscape:tile-w="1.4852411"
             style="fill:#657c43;fill-opacity:1;fill-rule:evenodd"
             id="rect5338" />
          <rect
             inkscape:tile-cy="17.722816"
             inkscape:tile-cx="41.367621"
             x="49.255001"
             inkscape:tile-h="3.4307041"
             y="86.528999"
             height="3.4307001"
             inkscape:tile-w="1.4852411"
             width="1.4852"
             style="fill:#657c43;fill-opacity:1;fill-rule:evenodd"
             id="rect5340" />
        </g>
        <g
           style="fill:#657c43;fill-opacity:1"
           transform="matrix(-5.4257426,2.4156764,-2.4156764,-5.4257426,1374.6561,1609.5659)"
           id="g5342">
          <rect
             inkscape:tile-cx="41.367621"
             x="49.262001"
             y="9.9398003"
             inkscape:tile-cy="17.722816"
             inkscape:tile-h="3.4307041"
             width="1.4852"
             height="3.4307001"
             inkscape:tile-w="1.4852411"
             style="fill:#657c43;fill-opacity:1;fill-rule:evenodd"
             id="rect5344" />
          <rect
             inkscape:tile-cy="17.722816"
             inkscape:tile-cx="41.367621"
             x="49.255001"
             inkscape:tile-h="3.4307041"
             y="86.528999"
             height="3.4307001"
             inkscape:tile-w="1.4852411"
             width="1.4852"
             style="fill:#657c43;fill-opacity:1;fill-rule:evenodd"
             id="rect5346" />
        </g>
        <g
           style="fill:#657c43;fill-opacity:1"
           transform="matrix(-5.6484238,1.8353231,-1.8353231,-5.6484238,1356.8109,1649.71)"
           id="g5348">
          <rect
             inkscape:tile-cy="17.722816"
             inkscape:tile-cx="41.367621"
             x="49.262001"
             inkscape:tile-h="3.4307041"
             y="9.9398003"
             height="3.4307001"
             inkscape:tile-w="1.4852411"
             width="1.4852"
             style="fill:#657c43;fill-opacity:1;fill-rule:evenodd"
             id="rect5350" />
          <rect
             inkscape:tile-cx="41.367621"
             x="49.255001"
             y="86.528999"
             inkscape:tile-cy="17.722816"
             inkscape:tile-h="3.4307041"
             width="1.4852"
             height="3.4307001"
             inkscape:tile-w="1.4852411"
             style="fill:#657c43;fill-opacity:1;fill-rule:evenodd"
             id="rect5352" />
        </g>
        <g
           style="fill:#657c43;fill-opacity:1"
           transform="matrix(-5.8093685,1.234821,-1.234821,-5.8093685,1334.8499,1687.7654)"
           id="g5354">
          <rect
             inkscape:tile-cx="41.367621"
             x="49.262001"
             y="9.9398003"
             inkscape:tile-cy="17.722816"
             inkscape:tile-h="3.4307041"
             width="1.4852"
             height="3.4307001"
             inkscape:tile-w="1.4852411"
             style="fill:#657c43;fill-opacity:1;fill-rule:evenodd"
             id="rect5356" />
          <rect
             inkscape:tile-cy="17.722816"
             inkscape:tile-cx="41.367621"
             x="49.255001"
             inkscape:tile-h="3.4307041"
             y="86.528999"
             height="3.4307001"
             inkscape:tile-w="1.4852411"
             width="1.4852"
             style="fill:#657c43;fill-opacity:1;fill-rule:evenodd"
             id="rect5358" />
        </g>
        <g
           style="fill:#657c43;fill-opacity:1"
           transform="matrix(-5.906734,0.62083518,-0.62083518,-5.906734,1309.0496,1723.333)"
           id="g5360">
          <rect
             inkscape:tile-cy="17.722816"
             inkscape:tile-cx="41.367621"
             x="49.262001"
             inkscape:tile-h="3.4307041"
             y="9.9398003"
             height="3.4307001"
             inkscape:tile-w="1.4852411"
             width="1.4852"
             style="fill:#657c43;fill-opacity:1;fill-rule:evenodd"
             id="rect5362" />
          <rect
             inkscape:tile-cx="41.367621"
             x="49.255001"
             y="86.528999"
             inkscape:tile-cy="17.722816"
             inkscape:tile-h="3.4307041"
             width="1.4852"
             height="3.4307001"
             inkscape:tile-w="1.4852411"
             style="fill:#657c43;fill-opacity:1;fill-rule:evenodd"
             id="rect5364" />
        </g>
        <g
           style="fill:#657c43;fill-opacity:1"
           transform="matrix(5.9389843,0,0,5.9389843,685.74497,1162.6739)"
           id="g5366">
          <rect
             x="48.356998"
             y="9.9398003"
             width="3.2846999"
             height="11.657"
             style="fill:#657c43;fill-opacity:1;fill-rule:evenodd"
             id="rect5368" />
          <rect
             x="48.356998"
             y="78.303001"
             width="3.2846999"
             height="11.657"
             style="fill:#657c43;fill-opacity:1;fill-rule:evenodd"
             id="rect5370" />
        </g>
        <g
           style="fill:#657c43;fill-opacity:1"
           transform="matrix(1.1990691e-6,5.9389843,-5.9389843,1.1990691e-6,1279.3485,1162.3791)"
           id="g5372">
          <rect
             x="48.356998"
             y="9.9398003"
             width="3.2846985"
             height="7.2347002"
             style="fill:#657c43;fill-opacity:1;fill-rule:evenodd"
             id="rect5374" />
          <rect
             x="48.356998"
             y="79.493622"
             width="3.2846985"
             height="10.466373"
             style="fill:#657c43;fill-opacity:1;fill-rule:evenodd"
             id="rect5376" />
        </g>
        <rect
           x="-111.75533"
           y="-1994.2395"
           width="14.014716"
           height="49.735981"
           transform="matrix(-0.86164435,0.50751257,-0.50751257,-0.86164435,0,0)"
           style="fill:#657c43;fill-opacity:1;fill-rule:evenodd"
           id="rect5378" />
        <rect
           x="-114.7131"
           y="-1568.26"
           width="14.309268"
           height="50.780273"
           transform="matrix(-0.86164435,0.50751257,-0.50751257,-0.86164435,0,0)"
           style="fill:#657c43;fill-opacity:1;fill-rule:evenodd"
           id="rect5380" />
        <rect
           x="1580.7856"
           y="512.40845"
           width="14.014723"
           height="49.736004"
           transform="matrix(0.85951392,0.51111234,-0.51111234,0.85951392,0,0)"
           style="fill:#657c43;fill-opacity:1;fill-rule:evenodd"
           id="rect5382" />
        <rect
           x="1585.792"
           y="939.08527"
           width="14.309276"
           height="50.7803"
           transform="matrix(0.85951392,0.51111234,-0.51111234,0.85951392,0,0)"
           style="fill:#657c43;fill-opacity:1;fill-rule:evenodd"
           id="rect5384" />
        <rect
           x="1749.8749"
           y="-340.06366"
           width="14.014787"
           height="49.736233"
           transform="matrix(0.5092367,0.8606265,-0.8606265,0.5092367,0,0)"
           style="fill:#657c43;fill-opacity:1;fill-rule:evenodd"
           id="rect5386" />
        <rect
           x="1747.3257"
           y="84.676895"
           width="14.30934"
           height="50.780529"
           transform="matrix(0.5092367,0.8606265,-0.8606265,0.5092367,0,0)"
           style="fill:#657c43;fill-opacity:1;fill-rule:evenodd"
           id="rect5388" />
        <rect
           x="778.66077"
           y="-1813.0629"
           width="14.014787"
           height="49.736233"
           transform="matrix(-0.49333471,0.86983956,-0.86983956,-0.49333471,0,0)"
           style="fill:#657c43;fill-opacity:1;fill-rule:evenodd"
           id="rect5390" />
        <rect
           x="775.0119"
           y="-1386.2815"
           width="14.30934"
           height="50.780529"
           transform="matrix(-0.49333471,0.86983956,-0.86983956,-0.49333471,0,0)"
           style="fill:#657c43;fill-opacity:1;fill-rule:evenodd"
           id="rect5392" />
      </g>
      <g
         id="g5394"
         transform="matrix(0.8169113,0,0,0.8169113,-1941.1766,-816.3283)">
        <rect
           transform="matrix(0,-1,1,0,0,0)"
           y="946.54449"
           x="-624.81384"
           height="73.634468"
           width="176.43407"
           id="rect5396"
           style="fill:#2e3436;fill-opacity:1;stroke:none" />
        <rect
           style="fill:#2e3436;fill-opacity:1;stroke:none"
           id="rect5398"
           width="169.70714"
           height="73.634468"
           x="896.82654"
           y="500.95493" />
      </g>
      <rect
         y="-401.88705"
         x="-1021.5912"
         height="51.054192"
         width="122.75196"
         id="rect5400"
         style="fill:#2e3436;fill-opacity:1;stroke:none" />
      <g
         transform="matrix(-0.57764352,0.57764352,0.57764352,0.57764352,-702.10581,-1091.6814)"
         id="g5402">
        <rect
           style="fill:#2e3436;fill-opacity:1;stroke:none"
           id="rect5404"
           width="176.43407"
           height="73.634468"
           x="-624.81384"
           y="946.54449"
           transform="matrix(0,-1,1,0,0,0)" />
        <rect
           y="500.95493"
           x="896.82654"
           height="73.634468"
           width="169.70714"
           id="rect5406"
           style="fill:#2e3436;fill-opacity:1;stroke:none" />
      </g>
      <g
         transform="matrix(-1.2974795,0,0,1.2974795,240.39029,-1777.6683)"
         id="g5436">
        <rect
           y="1189.0653"
           x="1013.3992"
           height="39.348747"
           width="94.608017"
           id="rect5408"
           style="fill:#2e3436;fill-opacity:1;stroke:none" />
        <g
           style="font-size:40px;font-style:normal;font-weight:normal;line-height:125%;letter-spacing:0px;word-spacing:0px;fill:#2e3436;fill-opacity:1;stroke:none;font-family:Sans"
           id="text5410">
          <path
             style="font-size:144px;font-variant:normal;font-stretch:normal;fill:#2e3436;font-family:Sniglet;-inkscape-font-specification:Sniglet"
             d="m 1078.8472,1164.801 c 0.3266,7.5008 -4.3866,15.3296 -11.9057,17.2385 -8.2596,2.7272 -18.7537,-0.3426 -22.5208,-8.6305 -4.2536,-8.6027 -1.3614,-20.961 7.8715,-24.989 8.3137,-3.8946 19.9039,-1.5534 24.3827,6.9582 1.6055,2.8559 2.1309,6.1854 2.1723,9.4228 z"
             id="path5419"
             inkscape:connector-curvature="0" />
        </g>
        <g
           style="font-size:40px;font-style:normal;font-weight:normal;line-height:125%;letter-spacing:0px;word-spacing:0px;fill:#2e3436;fill-opacity:1;stroke:none;font-family:Sans"
           id="text5414">
          <path
             style="font-size:144px;font-variant:normal;font-stretch:normal;fill:#2e3436;font-family:Sniglet;-inkscape-font-specification:Sniglet"
             d="m 1078.8472,1250.801 c 0.6782,9.2478 -7.1266,18.0379 -16.4689,18.18 -8.9723,0.9557 -18.466,-5.3391 -19.6203,-14.5959 -1.9198,-9.3975 4.2474,-20.1489 14.1452,-21.4813 9.3668,-2.0417 20.5272,3.9699 21.624,14.0368 0.2171,1.2745 0.3182,2.5678 0.32,3.8604 z"
             id="path5422"
             inkscape:connector-curvature="0" />
        </g>
      </g>
    </g>
  </g>
</svg>
